Plan372-hw2
…
response_by_station = dispatch_date_time |>
  mutate(response_time = arrive_date_time - dispatch_date_time) |>
  group_by(station) |>
  summarize(response_time = mean(response_time, na.rm=T)) 

highest_response_time = response_by_station |>
  filter(response_time == max(response_time, na.rm=T))
  
lowest_response_time = response_by_station |>
  filter(response_time == min(response_time, na.rm=T))

response_by_station 

# A tibble: 31 × 2
   station response_time
     <dbl> <drtn>       
 1       0 450.0000 secs
 2       1 246.7053 secs
 3       2 353.0248 secs
 4       3 284.8110 secs
 5       4 326.0335 secs
 6       5 273.7687 secs
 7       6 311.8862 secs
 8       7 284.7177 secs
 9       8 333.7066 secs
10       9 291.6525 secs
# ℹ 21 more rows
…
Calculating the times of day fire calls are most likely to occur.

fire_calls_by_time = data |>
  mutate(dispatch_date_time = ymd_hms(dispatch_date_time))

fire_calls_by_time = fire_calls_by_time |>
  mutate(hour = hour(dispatch_date_time))

calls_by_hour = fire_calls_by_time |>
group_by(hour) |>
  summarize(call_count = length(dispatch_date_time)) 

calls_by_hour

# A tibble: 25 × 2
    hour call_count
   <int>      <int>
 1     0      11714
 2     1      10512
 3     2       9340
 4     3       8366
 5     4       7449
 6     5       6337
 7     6       5785
 8     7       5065
 9     8       4640
10     9       4303
# ℹ 15 more rows
…
average_response_time_by_station_fires = dispatch_date_time_fires |>
    group_by(station) |>
    summarize(average_response_time = mean(response_time, na.rm=T))
  
highest_response_time_station_fires = average_response_time_by_station_fires |>
  filter(average_response_time == max(average_response_time, na.rm=T))
  
lowest_response_time_station_fires = average_response_time_by_station_fires |>
  filter(average_response_time == min(average_response_time, na.rm=T))

average_response_time_by_station_fires

# A tibble: 29 × 2
   station average_response_time
     <dbl> <drtn>               
 1       1 250.0814 secs        
 2       2 439.1138 secs        
 3       3 232.7666 secs        
 4       4 276.9760 secs        
 5       5 271.0142 secs        
 6       6 289.4477 secs        
 7       7 240.8027 secs        
 8       8 295.1253 secs        
 9       9 446.2697 secs        
10      10 278.3915 secs        
# ℹ 19 more rows
…
fire_calls = data |>
  filter(incident_type >= 100, incident_type < 200) |>
  mutate(dispatch_date_time = ymd_hms(dispatch_date_time))

fire_calls = fire_calls |>
  mutate(hour = hour(dispatch_date_time))

calls_by_hour = fire_calls |>
  group_by(hour) |>
  summarize(call_count = length(dispatch_date_time))

calls_by_hour

# A tibble: 25 × 2
    hour call_count
   <int>      <int>
 1     0        974
 2     1        826
 3     2        726
 4     3        575
 5     4        456
 6     5        373
 7     6        357
 8     7        310
 9     8        269
10     9        272
# ℹ 15 more rows
…
